[api-updater (non-obsolete-error-filter)] 10/10/2022 11:37:35 : Starting D:/UnityEditors/2020.3.38f1/Editor/Data/Tools/ScriptUpdater/APIUpdater.NonObsoleteApiUpdaterDetector.exe
[api-updater (non-obsolete-error-filter)] 
----------------------------------
jit/startup time      : 7982.7819ms
moved types parse time: 90ms
candidates parse time : 14ms
C# parse time         : 1932ms
candidates check time : 891ms
console write time    : 438ms

[api-updater (non-obsolete-error-filter)] 10/10/2022 11:39:19 : Starting D:/UnityEditors/2020.3.38f1/Editor/Data/Tools/ScriptUpdater/APIUpdater.NonObsoleteApiUpdaterDetector.exe
[api-updater (non-obsolete-error-filter)] 
----------------------------------
jit/startup time      : 452.0322ms
moved types parse time: 84ms
candidates parse time : 768ms
C# parse time         : 296ms
candidates check time : 772ms
console write time    : 1ms

[api-updater (non-obsolete-error-filter)] 10/10/2022 11:54:00 : Starting D:/UnityEditors/2020.3.38f1/Editor/Data/Tools/ScriptUpdater/APIUpdater.NonObsoleteApiUpdaterDetector.exe
[api-updater (non-obsolete-error-filter)] 
----------------------------------
jit/startup time      : 798.2855ms
moved types parse time: 72ms
candidates parse time : 13ms
C# parse time         : 422ms
candidates check time : 701ms
console write time    : 1ms

[api-updater (non-obsolete-error-filter)] 10/10/2022 11:54:32 : Starting D:/UnityEditors/2020.3.38f1/Editor/Data/Tools/ScriptUpdater/APIUpdater.NonObsoleteApiUpdaterDetector.exe
[api-updater (non-obsolete-error-filter)] 
----------------------------------
jit/startup time      : 95.0951ms
moved types parse time: 62ms
candidates parse time : 14ms
C# parse time         : 255ms
candidates check time : 697ms
console write time    : 0ms

[api-updater (non-obsolete-error-filter)] 10/10/2022 11:54:38 : Starting D:/UnityEditors/2020.3.38f1/Editor/Data/Tools/ScriptUpdater/APIUpdater.NonObsoleteApiUpdaterDetector.exe
[api-updater (non-obsolete-error-filter)] 
----------------------------------
jit/startup time      : 90.2075ms
moved types parse time: 56ms
candidates parse time : 12ms
C# parse time         : 258ms
candidates check time : 973ms
console write time    : 1ms

[api-updater (non-obsolete-error-filter)] 10/10/2022 12:03:05 : Starting D:/UnityEditors/2020.3.38f1/Editor/Data/Tools/ScriptUpdater/APIUpdater.NonObsoleteApiUpdaterDetector.exe
[api-updater (non-obsolete-error-filter)] 
----------------------------------
jit/startup time      : 1689.2278ms
moved types parse time: 56ms
candidates parse time : 1ms
C# parse time         : 211ms
candidates check time : 84ms
console write time    : 0ms

[api-updater (non-obsolete-error-filter)] 10/10/2022 16:24:36 : Starting D:/UnityEditors/2020.3.38f1/Editor/Data/Tools/ScriptUpdater/APIUpdater.NonObsoleteApiUpdaterDetector.exe
[api-updater (non-obsolete-error-filter)] 
----------------------------------
jit/startup time      : 1194.2272ms
moved types parse time: 63ms
candidates parse time : 1ms
C# parse time         : 733ms
candidates check time : 30ms
console write time    : 1ms

[api-updater (non-obsolete-error-filter)] 29/11/2022 11:53:43 : Starting C:/Program Files/Unity/Hub/Editor/2020.3.42f1/Editor/Data/Tools/ScriptUpdater/APIUpdater.NonObsoleteApiUpdaterDetector.exe
[api-updater (non-obsolete-error-filter)] 
----------------------------------
jit/startup time      : 331.8141ms
moved types parse time: 36ms
candidates parse time : 0ms
C# parse time         : 469ms
candidates check time : 24ms
console write time    : 0ms

[api-updater (non-obsolete-error-filter)] 29/11/2022 11:55:37 : Starting C:/Program Files/Unity/Hub/Editor/2020.3.42f1/Editor/Data/Tools/ScriptUpdater/APIUpdater.NonObsoleteApiUpdaterDetector.exe
[api-updater (non-obsolete-error-filter)] 
----------------------------------
jit/startup time      : 55.1678ms
moved types parse time: 38ms
candidates parse time : 1ms
C# parse time         : 124ms
candidates check time : 24ms
console write time    : 0ms

[api-updater (non-obsolete-error-filter)] 29/11/2022 12:30:10 : Starting C:/Program Files/Unity/Hub/Editor/2020.3.42f1/Editor/Data/Tools/ScriptUpdater/APIUpdater.NonObsoleteApiUpdaterDetector.exe
[api-updater (non-obsolete-error-filter)] 
----------------------------------
jit/startup time      : 60.9267ms
moved types parse time: 39ms
candidates parse time : 1ms
C# parse time         : 135ms
candidates check time : 31ms
console write time    : 0ms

[api-updater (non-obsolete-error-filter)] 29/11/2022 12:30:20 : Starting C:/Program Files/Unity/Hub/Editor/2020.3.42f1/Editor/Data/Tools/ScriptUpdater/APIUpdater.NonObsoleteApiUpdaterDetector.exe
[api-updater (non-obsolete-error-filter)] 
----------------------------------
jit/startup time      : 63.8177ms
moved types parse time: 36ms
candidates parse time : 0ms
C# parse time         : 123ms
candidates check time : 33ms
console write time    : 0ms

[api-updater (non-obsolete-error-filter)] 29/11/2022 12:31:11 : Starting C:/Program Files/Unity/Hub/Editor/2020.3.42f1/Editor/Data/Tools/ScriptUpdater/APIUpdater.NonObsoleteApiUpdaterDetector.exe
[api-updater (non-obsolete-error-filter)] 
----------------------------------
jit/startup time      : 56.4227ms
moved types parse time: 36ms
candidates parse time : 0ms
C# parse time         : 130ms
candidates check time : 31ms
console write time    : 0ms

[api-updater (non-obsolete-error-filter)] 29/11/2022 12:32:55 : Starting C:/Program Files/Unity/Hub/Editor/2020.3.42f1/Editor/Data/Tools/ScriptUpdater/APIUpdater.NonObsoleteApiUpdaterDetector.exe
[api-updater (non-obsolete-error-filter)] 
----------------------------------
jit/startup time      : 55.4445ms
moved types parse time: 36ms
candidates parse time : 0ms
C# parse time         : 118ms
candidates check time : 35ms
console write time    : 0ms

[api-updater (non-obsolete-error-filter)] 29/11/2022 12:34:20 : Starting C:/Program Files/Unity/Hub/Editor/2020.3.42f1/Editor/Data/Tools/ScriptUpdater/APIUpdater.NonObsoleteApiUpdaterDetector.exe
[api-updater (non-obsolete-error-filter)] 
----------------------------------
jit/startup time      : 49.875ms
moved types parse time: 32ms
candidates parse time : 0ms
C# parse time         : 123ms
candidates check time : 29ms
console write time    : 0ms

[api-updater (non-obsolete-error-filter)] 29/11/2022 12:35:15 : Starting C:/Program Files/Unity/Hub/Editor/2020.3.42f1/Editor/Data/Tools/ScriptUpdater/APIUpdater.NonObsoleteApiUpdaterDetector.exe
[api-updater (non-obsolete-error-filter)] 
----------------------------------
jit/startup time      : 49.8699ms
moved types parse time: 33ms
candidates parse time : 1ms
C# parse time         : 115ms
candidates check time : 29ms
console write time    : 0ms

[api-updater (non-obsolete-error-filter)] 29/11/2022 12:35:30 : Starting C:/Program Files/Unity/Hub/Editor/2020.3.42f1/Editor/Data/Tools/ScriptUpdater/APIUpdater.NonObsoleteApiUpdaterDetector.exe
[api-updater (non-obsolete-error-filter)] 
----------------------------------
jit/startup time      : 58.8367ms
moved types parse time: 39ms
candidates parse time : 1ms
C# parse time         : 123ms
candidates check time : 33ms
console write time    : 0ms

[api-updater (non-obsolete-error-filter)] 29/11/2022 12:35:40 : Starting C:/Program Files/Unity/Hub/Editor/2020.3.42f1/Editor/Data/Tools/ScriptUpdater/APIUpdater.NonObsoleteApiUpdaterDetector.exe
[api-updater (non-obsolete-error-filter)] 
----------------------------------
jit/startup time      : 54.0176ms
moved types parse time: 35ms
candidates parse time : 0ms
C# parse time         : 120ms
candidates check time : 29ms
console write time    : 0ms

